<?xml version="1.0" encoding="UTF-8"?>
<svg width="143px" height="50px" viewBox="0 0 143 50" version="1.1" xmlns="http://www.w3.org/2000/svg" xmlns:xlink="http://www.w3.org/1999/xlink">
    <!-- Generator: Sketch 50.2 (55047) - http://www.bohemiancoding.com/sketch -->
    <title>balagan_blue@1.5x</title>
    <desc>Created with Sketch.</desc>
    <defs></defs>
    <g id="Page-1" stroke="none" stroke-width="1" fill="none" fill-rule="evenodd">
        <g id="assets" transform="translate(-331.000000, -6522.000000)" fill="#1F3463">
            <g id="balagan_blue" transform="translate(331.000000, 6522.000000)">
                <path d="M84.7498449,41.1171702 C84.6754446,41.0511578 84.6010442,40.9842652 84.5270893,40.9178128 C82.9985401,42.9413133 81.2098123,44.8019832 80.6627244,47.4371988 C82.0250979,45.3305226 83.3874714,43.2238464 84.7498449,41.1171702 Z M72.6069893,24.6294694 C70.9915654,25.1166411 67.9963931,28.9642847 68.052082,30.6489215 C69.6470124,28.540485 71.0744305,26.6538502 72.6069893,24.6294694 Z M92.1431047,23.5891138 C90.2951239,23.7136572 87.3529674,26.3418315 86.8753793,28.2988795 C89.2383711,27.1762284 90.8105805,25.520197 92.1431047,23.5891138 Z M47.3830314,22.8378925 C43.6830602,23.9931098 41.4987183,26.7827944 39.5888115,29.8651341 C42.768871,28.1567328 45.0276132,25.4550647 47.3830314,22.8378925 Z M107.041002,30.5622252 C109.877572,29.370041 113.793617,25.881945 114.621377,23.8558039 C111.789707,24.3887442 107.343504,28.2737948 107.041002,30.5622252 Z M122.408023,26.9183399 C121.095992,28.08852 119.801336,29.2785038 118.464802,30.4196384 C117.69184,31.0793225 116.90284,31.7460478 116.030974,32.2609447 C114.142452,33.3761144 112.837549,32.8484552 112.115821,30.7796261 C112.026719,30.5243781 111.938062,30.2682499 111.789707,29.8409296 C110.777505,30.5947913 109.822329,31.3152068 108.858243,32.0224198 C107.590318,32.9523147 106.261357,33.054854 105.403303,32.300112 C104.516735,31.5198453 104.40803,30.034566 105.167182,28.748204 C105.420678,28.3186833 105.729417,27.9208484 106.147752,27.3113338 C103.729517,27.5731831 101.576361,28.1813774 99.8326295,29.4408943 C96.0867706,32.1469632 92.4661004,35.0334661 88.9225036,37.9952231 C87.9446064,38.813337 87.3845987,40.1379861 86.6922741,41.2659182 C85.3668781,43.4262845 84.1230106,45.6372603 82.7606371,47.7743022 C82.3084431,48.4841557 81.6704709,49.1359183 80.9777009,49.6186891 C80.5330806,49.9289475 79.738734,50.1111417 79.2776298,49.9249867 C78.8797882,49.7639164 78.4864018,48.9827695 78.5233792,48.5083603 C78.6035712,47.4838476 78.8650864,46.4461324 79.2219409,45.4739896 C80.2635463,42.6380963 82.2973053,40.4319614 84.55382,38.5800931 C87.7552641,35.9523589 88.9042377,32.2957112 90.3819986,28.7578859 C90.4203126,28.6645883 90.3681878,28.5343238 90.080833,28.1664146 C89.7578373,28.6073776 89.5212708,29.1742042 89.0922434,29.4611381 C88.364278,29.9474296 87.5249347,30.545062 86.7154407,30.5688264 C85.7094763,30.5987521 85.0853149,30.9503782 84.3724969,31.5524114 C82.207312,33.3805152 79.6327023,34.315251 76.8054877,34.4789618 C74.4242299,34.6167077 73.0881415,33.2753355 72.652877,30.4803698 C72.5584286,29.875256 72.4755635,29.2675017 72.3570575,28.4467474 C71.6085986,29.4743406 70.9857738,30.3545061 70.3335453,31.2135477 C69.9798093,31.6795953 69.6113715,32.1443227 69.1899178,32.5491989 C67.2029375,34.4565176 65.6761703,34.1488997 64.735696,31.7086408 C63.7448789,32.5681224 62.7981674,33.5094595 61.7311678,34.2897262 C59.2140291,36.1288321 56.011694,34.915964 55.954223,31.7015995 C55.9346205,30.5903905 55.9511044,29.4791815 55.9511044,28.0960014 C55.0877036,28.8630656 54.3864688,29.5051464 53.664295,30.1239028 C52.6226896,31.0159505 51.629645,31.9792917 50.5033924,32.7538374 C47.8984879,34.5458544 45.5738101,33.4518086 45.2329939,30.3355826 C45.1750775,29.8083634 45.1728499,29.274543 45.135427,28.5611689 C43.540051,29.8255267 42.1086233,31.0225518 40.6103688,32.1311203 C39.1063227,33.2440896 37.4414471,32.6279737 37.0453875,30.8029505 C36.9317821,30.279252 37.0387049,29.6090059 37.2850726,29.1262351 C39.097858,25.5765276 41.7548873,22.8242499 45.4637688,21.1959437 C47.2333396,20.4196377 49.3749123,21.1233301 50.247669,22.7784813 C50.4450305,23.1521116 50.0863939,24.0560416 49.7023631,24.4428744 C48.0905033,26.0645793 47.2979387,27.9710179 47.2863554,30.2158801 C47.2796728,31.5678143 47.8886867,31.9392442 49.1664131,31.3790188 C49.4172359,31.2694382 49.6774145,31.1536964 49.8885869,30.9860249 C53.2241299,28.3389271 56.3877055,25.5430813 58.1938082,21.5757351 C60.4797266,16.5548309 63.8050229,12.2134144 67.3512927,8.02690705 C68.4931381,6.67849345 69.2402606,6.66353064 69.8621943,7.94945248 C70.0920781,8.4265022 69.9553062,9.24945697 69.6871084,9.76127322 C67.4840551,13.9667041 64.619863,17.7377733 61.5342519,21.3350099 C59.3049134,23.9341387 58.1113887,26.8853337 57.8841779,30.2532871 C57.8734856,30.4090764 57.8142326,30.5776281 57.8552197,30.7166943 C58.1118342,31.5779362 58.1461385,32.687825 58.7221846,33.2264863 C59.5031659,33.9570237 60.4868548,33.13979 61.1217084,32.5945274 C62.8970709,31.0700807 64.6100618,29.4664191 66.2482068,27.7980654 C67.8654127,26.1508356 69.3128789,24.3416553 70.9251842,22.6891445 C72.0322798,21.5546112 72.710348,21.6628715 73.776011,22.9272293 C74.4995213,22.138601 75.2150124,22.3802064 75.9198113,22.9831198 C76.6655972,23.6212398 76.2757748,24.2624404 76.0320801,24.9863766 C75.4676173,26.6648522 74.7614819,28.3534498 74.5814954,30.0860557 C74.3721051,32.0959136 75.4489058,32.9619965 77.526325,32.9928023 C80.1183096,33.0315296 82.2193408,31.8503475 84.1394945,30.2911342 C84.3818526,30.0944172 84.4468973,29.6503737 84.5319899,29.306229 C84.7257873,28.5224416 84.6897009,27.6163112 85.0866515,26.9605879 C86.4610538,24.6880005 88.264038,22.7855227 90.7589012,21.6729934 C92.5360457,20.8808445 92.7516731,21.4265471 93.8667879,22.9105062 C95.234062,24.7306885 94.1813189,25.9250731 93.5598306,27.3377388 C92.6893016,29.3176711 91.7604105,31.2729589 91.0774417,33.3972384 C91.7465997,32.8775006 92.4433793,32.3876885 93.0804605,31.8327441 C97.1078825,28.327925 101.669473,26.0953851 107.140797,25.9435566 C107.515472,25.9334347 107.918659,25.6447404 108.242992,25.4009345 C109.558586,24.4120686 110.772159,23.2669732 112.175074,22.4250949 C113.070997,21.8873137 114.219525,21.6003798 115.27806,21.5277661 C116.48005,21.4450306 116.931798,22.4026507 116.34105,23.3976778 C116.276451,23.5068183 116.19715,23.6951737 116.245711,23.7699878 C116.965657,24.8763559 116.157945,25.6834677 115.702187,26.5548315 C115.069115,27.7650591 114.424906,28.9691256 113.785597,30.1767127 C113.921478,30.3091776 114.057359,30.4420826 114.193686,30.5749876 C114.717162,30.3298615 115.303454,30.1665908 115.75253,29.8264068 C117.879846,28.2157039 119.966176,26.551751 122.077008,24.9203642 C122.478414,24.6105459 122.894076,24.2311945 123.361863,24.1176532 C123.879992,23.9909094 124.646717,23.9275374 124.973277,24.2105107 C125.347061,24.5335314 125.588082,25.3195192 125.476705,25.8141723 C125.216526,26.9693895 124.710425,28.0704766 124.190514,29.5064667 C125.077526,29.0875079 125.726191,28.7834107 126.373073,28.4749126 C127.540758,27.9199683 128.669238,27.2580838 129.883257,26.8298833 C131.689805,26.1935236 132.458757,26.732625 132.705125,28.5928548 C132.725619,28.7473239 132.74433,28.902233 132.751458,29.0571421 C132.855263,31.3182874 133.034804,31.6364672 135.310921,31.9784115 C137.368292,32.2882298 139.462195,32.3604034 141.539168,32.5439179 C141.9976,32.5839654 142.453358,32.6530584 142.910898,32.7085088 C142.940301,32.8396535 142.970151,32.9712383 143,33.102823 C142.155311,33.3717136 141.307948,33.8729678 140.465932,33.8650464 C138.23793,33.8439224 135.982306,33.7704286 133.792618,33.4011991 C131.618078,33.0341701 130.805911,31.8340644 130.658892,29.6239687 C130.641517,29.359479 130.612113,29.0967496 130.563107,28.5466461 C129.090247,29.3286732 127.753267,30.0328056 126.42208,30.7479401 C125.628178,31.1748204 124.872146,31.6835561 124.04795,32.0404632 C122.465494,32.7265522 121.32053,31.8780727 121.618577,30.1855144 C121.80391,29.1337165 122.261004,28.1276873 122.596029,27.1014143 L122.408023,26.9183399 Z" id="Fill-1"></path>
                <path d="M14.1965078,30.6927751 C14.324311,30.4256976 14.4604302,30.1616848 14.5781667,29.8902289 C16.1647647,26.2391472 17.7758729,22.5985734 19.3130128,18.9269135 C19.6802282,18.0499359 20.4991316,17.2316277 19.9804781,16.1068371 C19.938023,16.0144545 20.2058845,15.7513174 20.3616993,15.6007032 C20.5774767,15.3940465 20.9214949,15.2666373 21.0405444,15.0218892 C21.8257463,13.4080401 22.5658669,11.7714238 23.3204311,10.1422506 C18.2542595,16.0958913 15.4692876,23.0582971 14.1965078,30.6927751 M24.3853119,13.5380763 C28.2137181,11.4246608 30.9391652,8.67551313 32.8395814,5.10411682 C32.9468135,4.90227623 33.1153212,4.59929642 33.0400398,4.46006582 C32.8557756,4.12030813 32.4653631,3.55156425 32.2981685,3.59666095 C30.6209703,4.04850366 28.8067775,4.54500525 27.9125928,6.11813592 C26.6209926,8.3913601 25.6445236,10.8445333 24.3853119,13.5380763 M29.4449182,2.25733261 C30.2887695,1.99156853 31.0809743,1.67851859 31.9029415,1.49594261 C33.9526072,1.04103508 34.9956039,1.93202337 34.9999808,4.0340552 C35.0047953,6.05202328 34.105796,7.70877989 32.8680307,9.17945785 C31.6293901,10.6514493 30.2664477,12.0183611 28.9744098,13.4137319 C34.564487,14.4119891 35.5777213,18.9562483 34.6095682,23.2128518 C33.3267217,28.8551939 30.2830796,33.4239717 25.5267871,36.6573616 C19.1782067,40.9726346 11.9722068,42.7493572 4.37360601,42.997608 C3.28815414,43.0326346 2.16024709,42.6766771 1.10193152,42.3434869 C0.169668416,42.0497016 -0.259260147,40.9209704 0.162665501,40.0553764 C0.272086053,39.8307686 0.843261332,39.5833934 1.02927627,39.6801543 C4.34559435,41.4052127 7.73456768,40.7559077 11.1340454,40.072014 C16.3205795,39.0286602 21.1670346,37.1893276 25.3981085,33.9362352 C30.058111,30.3538931 32.3331831,25.5215404 32.6491896,19.7294597 C32.7734914,17.4483546 31.7821412,16.3485204 29.5639677,15.7867818 C27.1326431,15.1707521 24.9735568,15.8375704 22.9168881,17.0481761 C22.6188265,17.2241846 22.4012984,17.6160443 22.2520488,17.9544885 C20.1494235,22.7316743 18.0432967,27.5084224 15.9923179,32.3079377 C15.5397545,33.3674913 15.2679538,34.5102331 14.9725183,35.6302075 C14.7208511,36.5846815 14.138296,36.9218122 13.1872126,36.9012341 C12.2085552,36.880656 11.9564502,36.2554318 11.8150789,35.4822203 C11.3305647,32.8280822 11.7577425,30.2352406 12.391944,27.6691068 C13.9667246,21.2986499 16.4212464,15.3047287 20.380082,10.0314791 C21.6012154,8.4049329 23.0696392,6.90492018 24.6496719,5.62469917 C25.9535272,4.56733468 26.5163865,3.24289263 27.0643647,1.79279277 C27.3234725,1.10758556 26.9829558,-0.184894756 28.3520257,0.0221998195 C29.6020461,0.21134328 29.5232633,1.26082678 29.4449182,2.25733261" id="Fill-3"></path>
                <path d="M72,24 C70.6543733,26.0178389 69.4010629,27.898377 68.0006724,30 C67.9517761,28.3208071 70.5816156,24.4855973 72,24" id="Fill-12"></path>
                <path d="M85,40.1834751 C83.6666667,42.1223167 82.3333333,44.0611584 81,46 C81.5354262,43.5747266 83.2860257,41.8622924 84.7819926,40 C84.854371,40.0611584 84.9271855,40.1227217 85,40.1834751" id="Fill-14"></path>
                <path d="M15,31 C16.3949918,23.5700407 19.447376,16.7941496 25,11 C24.1729828,12.5855295 23.361796,14.1783028 22.5011993,15.7489188 C22.3707186,15.9871104 21.9936678,16.1111064 21.7571716,16.312227 C21.5863955,16.4588065 21.292814,16.7148944 21.3393457,16.8048022 C21.9078001,17.899461 21.0102658,18.6958476 20.6077905,19.5493321 C18.9230548,23.1226325 17.1572484,26.6656795 15.4183057,30.2189531 C15.2892641,30.483137 15.1400748,30.7400771 15,31" id="Fill-18"></path>
            </g>
        </g>
    </g>
</svg>